biostat203bhw3
…
#using parquet generated in hw2
patient_labs <- arrow::open_dataset("labevents.parquet") |> 
  filter(subject_id == 10063848) |> 
  collect()
print(patient_labs)

# A tibble: 1,114 × 16
   labevent_id subject_id  hadm_id specimen_id itemid order_provider_id
         <int>      <int>    <int>       <int>  <int> <chr>            
 1      950980   10063848 21345067    15946273  51133 ""               
 2      950981   10063848 21345067    15946273  51146 ""               
 3      950982   10063848 21345067    15946273  51200 ""               
 4      950983   10063848 21345067    15946273  51221 ""               
 5      950984   10063848 21345067    15946273  51222 ""               
 6      950985   10063848 21345067    15946273  51244 ""               
 7      950986   10063848 21345067    15946273  51248 ""               
 8      950987   10063848 21345067    15946273  51249 ""               
 9      950988   10063848 21345067    15946273  51250 ""               
10      950989   10063848 21345067    15946273  51254 ""               
# ℹ 1,104 more rows
# ℹ 10 more variables: charttime <dttm>, storetime <dttm>, value <chr>,
#   valuenum <dbl>, valueuom <chr>, ref_range_lower <dbl>,
#   ref_range_upper <dbl>, flag <chr>, priority <chr>, comments <chr>
…
